node,Scanning,Customer Administration,Claims Administration,Printing,Payment,Capture Information,Notify Additional Stakeholders,Validate,Investigate,Pay,Handle Claim
DMS,1.5,0,0,2.3,0,0,0,0,0,0,0
CRM,0,5,0,0,0,0,0,0,0,0,0
Back Office,0,0,1.9,0,0.9,0,0,0,0,0,0
Web Portal,0,2,0,0,0,0,0,0,0,0,0
Scanning,0,0,0,0,0,2,0,0,0,0,0
Customer Administration,0,0,0,0,0,0.8,0,0,0,0,0
Claims Administration,0,0,0,0,0,0,2,0.9,3,0,0
Printing,0,0,0,0,0,0,0,3.2,0,2.1,0
Payment,0,0,0,0,0,0,0,0,0,0.3,0
Capture Information,0,0,0,0,0,0,0,0,0,0,1.4
Notify Additional Stakeholders,0,0,0,0,0,0,0,0,0,0,1.2
Validate,0,0,0,0,0,0,0,0,0,0,0.2
Investigate,0,0,0,0,0,0,0,0,0,0,1.2
Pay,0,0,0,0,0,0,0,0,0,0,0.6
Handle Claim,0,0,0,0,0,0,0,0,0,0,0
